(kicad_sch (version 20200828) (generator eeschema)

  (page 20 20)

  (paper "A2")

  (title_block
    (title "[14] - SPI FLASH, LEDS-SchDoc")
    (date "27 03 2020")
  )

  (lib_symbols
    (symbol "Device:C" (pin_numbers hide) (pin_names (offset 0.254))
      (property "Reference" "C" (id 0) (at 0.635 2.54 0)
        (effects (font (size 1.27 1.27)) (justify left))
      )
      (property "Value" "C" (id 1) (at 0.635 -2.54 0)
        (effects (font (size 1.27 1.27)) (justify left))
      )
      (property "Footprint" "" (id 2) (at 0.9652 -3.81 0)
        (effects (font (size 1.27 1.27)) hide)
      )
      (property "Datasheet" "~" (id 3) (at 0 0 0)
        (effects (font (size 1.27 1.27)) hide)
      )
      (property "ki_keywords" "cap capacitor" (id 4) (at 0 0 0)
        (effects (font (size 1.27 1.27)) hide)
      )
      (property "ki_description" "Unpolarized capacitor" (id 5) (at 0 0 0)
        (effects (font (size 1.27 1.27)) hide)
      )
      (property "ki_fp_filters" "C_*" (id 6) (at 0 0 0)
        (effects (font (size 1.27 1.27)) hide)
      )
      (symbol "C_0_1"
        (polyline
          (pts
            (xy -2.032 -0.762)
            (xy 2.032 -0.762)
          )
          (stroke (width 0.508)) (fill (type none))
        )
        (polyline
          (pts
            (xy -2.032 0.762)
            (xy 2.032 0.762)
          )
          (stroke (width 0.508)) (fill (type none))
        )
      )
      (symbol "C_1_1"
        (pin passive line (at 0 3.81 270) (length 2.794)
          (name "~" (effects (font (size 1.27 1.27))))
          (number "1" (effects (font (size 1.27 1.27))))
        )
        (pin passive line (at 0 -3.81 90) (length 2.794)
          (name "~" (effects (font (size 1.27 1.27))))
          (number "2" (effects (font (size 1.27 1.27))))
        )
      )
    )
    (symbol "Device:LED" (pin_numbers hide) (pin_names hide)
      (property "Reference" "D" (id 0) (at 0 2.54 0)
        (effects (font (size 1.27 1.27)))
      )
      (property "Value" "LED" (id 1) (at 0 -2.54 0)
        (effects (font (size 1.27 1.27)))
      )
      (property "Footprint" "" (id 2) (at 0 0 0)
        (effects (font (size 1.27 1.27)) hide)
      )
      (property "Datasheet" "~" (id 3) (at 0 0 0)
        (effects (font (size 1.27 1.27)) hide)
      )
      (property "ki_keywords" "LED diode" (id 4) (at 0 0 0)
        (effects (font (size 1.27 1.27)) hide)
      )
      (property "ki_description" "Light emitting diode" (id 5) (at 0 0 0)
        (effects (font (size 1.27 1.27)) hide)
      )
      (property "ki_fp_filters" "LED*\nLED_SMD:*\nLED_THT:*" (id 6) (at 0 0 0)
        (effects (font (size 1.27 1.27)) hide)
      )
      (symbol "LED_0_1"
        (polyline
          (pts
            (xy -1.27 -1.27)
            (xy -1.27 1.27)
          )
          (stroke (width 0.254)) (fill (type none))
        )
        (polyline
          (pts
            (xy -1.27 0)
            (xy 1.27 0)
          )
          (stroke (width 0)) (fill (type none))
        )
        (polyline
          (pts
            (xy 1.27 -1.27)
            (xy 1.27 1.27)
            (xy -1.27 0)
            (xy 1.27 -1.27)
          )
          (stroke (width 0.254)) (fill (type none))
        )
        (polyline
          (pts
            (xy -3.048 -0.762)
            (xy -4.572 -2.286)
            (xy -3.81 -2.286)
            (xy -4.572 -2.286)
            (xy -4.572 -1.524)
          )
          (stroke (width 0)) (fill (type none))
        )
        (polyline
          (pts
            (xy -1.778 -0.762)
            (xy -3.302 -2.286)
            (xy -2.54 -2.286)
            (xy -3.302 -2.286)
            (xy -3.302 -1.524)
          )
          (stroke (width 0)) (fill (type none))
        )
      )
      (symbol "LED_1_1"
        (pin passive line (at -3.81 0 0) (length 2.54)
          (name "K" (effects (font (size 1.27 1.27))))
          (number "1" (effects (font (size 1.27 1.27))))
        )
        (pin passive line (at 3.81 0 180) (length 2.54)
          (name "A" (effects (font (size 1.27 1.27))))
          (number "2" (effects (font (size 1.27 1.27))))
        )
      )
    )
    (symbol "Device:LED_1" (pin_numbers hide) (pin_names hide)
      (property "Reference" "D" (id 0) (at 0 2.54 0)
        (effects (font (size 1.27 1.27)))
      )
      (property "Value" "LED" (id 1) (at 0 -2.54 0)
        (effects (font (size 1.27 1.27)))
      )
      (property "Footprint" "" (id 2) (at 0 0 0)
        (effects (font (size 1.27 1.27)) hide)
      )
      (property "Datasheet" "~" (id 3) (at 0 0 0)
        (effects (font (size 1.27 1.27)) hide)
      )
      (property "ki_keywords" "LED diode" (id 4) (at 0 0 0)
        (effects (font (size 1.27 1.27)) hide)
      )
      (property "ki_description" "Light emitting diode" (id 5) (at 0 0 0)
        (effects (font (size 1.27 1.27)) hide)
      )
      (property "ki_fp_filters" "LED*\nLED_SMD:*\nLED_THT:*" (id 6) (at 0 0 0)
        (effects (font (size 1.27 1.27)) hide)
      )
      (symbol "LED_1_0_1"
        (polyline
          (pts
            (xy -1.27 -1.27)
            (xy -1.27 1.27)
          )
          (stroke (width 0.254)) (fill (type none))
        )
        (polyline
          (pts
            (xy -1.27 0)
            (xy 1.27 0)
          )
          (stroke (width 0)) (fill (type none))
        )
        (polyline
          (pts
            (xy 1.27 -1.27)
            (xy 1.27 1.27)
            (xy -1.27 0)
            (xy 1.27 -1.27)
          )
          (stroke (width 0.254)) (fill (type none))
        )
        (polyline
          (pts
            (xy -3.048 -0.762)
            (xy -4.572 -2.286)
            (xy -3.81 -2.286)
            (xy -4.572 -2.286)
            (xy -4.572 -1.524)
          )
          (stroke (width 0)) (fill (type none))
        )
        (polyline
          (pts
            (xy -1.778 -0.762)
            (xy -3.302 -2.286)
            (xy -2.54 -2.286)
            (xy -3.302 -2.286)
            (xy -3.302 -1.524)
          )
          (stroke (width 0)) (fill (type none))
        )
      )
      (symbol "LED_1_1_1"
        (pin passive line (at -3.81 0 0) (length 2.54)
          (name "K" (effects (font (size 1.27 1.27))))
          (number "1" (effects (font (size 1.27 1.27))))
        )
        (pin passive line (at 3.81 0 180) (length 2.54)
          (name "A" (effects (font (size 1.27 1.27))))
          (number "2" (effects (font (size 1.27 1.27))))
        )
      )
    )
    (symbol "Device:Q_NMOS_GSD" (pin_names (offset 0) hide)
      (property "Reference" "Q" (id 0) (at 5.08 1.27 0)
        (effects (font (size 1.27 1.27)) (justify left))
      )
      (property "Value" "Q_NMOS_GSD" (id 1) (at 5.08 -1.27 0)
        (effects (font (size 1.27 1.27)) (justify left))
      )
      (property "Footprint" "" (id 2) (at 5.08 2.54 0)
        (effects (font (size 1.27 1.27)) hide)
      )
      (property "Datasheet" "~" (id 3) (at 0 0 0)
        (effects (font (size 1.27 1.27)) hide)
      )
      (property "ki_keywords" "transistor NMOS N-MOS N-MOSFET" (id 4) (at 0 0 0)
        (effects (font (size 1.27 1.27)) hide)
      )
      (property "ki_description" "N-MOSFET transistor, gate/source/drain" (id 5) (at 0 0 0)
        (effects (font (size 1.27 1.27)) hide)
      )
      (symbol "Q_NMOS_GSD_0_1"
        (circle (center 1.651 0) (radius 2.794) (stroke (width 0.254)) (fill (type none)))
        (circle (center 2.54 -1.778) (radius 0.254) (stroke (width 0)) (fill (type outline)))
        (circle (center 2.54 1.778) (radius 0.254) (stroke (width 0)) (fill (type outline)))
        (polyline
          (pts
            (xy 0.254 0)
            (xy -2.54 0)
          )
          (stroke (width 0)) (fill (type none))
        )
        (polyline
          (pts
            (xy 0.254 1.905)
            (xy 0.254 -1.905)
          )
          (stroke (width 0.254)) (fill (type none))
        )
        (polyline
          (pts
            (xy 0.762 -1.27)
            (xy 0.762 -2.286)
          )
          (stroke (width 0.254)) (fill (type none))
        )
        (polyline
          (pts
            (xy 0.762 0.508)
            (xy 0.762 -0.508)
          )
          (stroke (width 0.254)) (fill (type none))
        )
        (polyline
          (pts
            (xy 0.762 2.286)
            (xy 0.762 1.27)
          )
          (stroke (width 0.254)) (fill (type none))
        )
        (polyline
          (pts
            (xy 2.54 2.54)
            (xy 2.54 1.778)
          )
          (stroke (width 0)) (fill (type none))
        )
        (polyline
          (pts
            (xy 2.54 -2.54)
            (xy 2.54 0)
            (xy 0.762 0)
          )
          (stroke (width 0)) (fill (type none))
        )
        (polyline
          (pts
            (xy 0.762 -1.778)
            (xy 3.302 -1.778)
            (xy 3.302 1.778)
            (xy 0.762 1.778)
          )
          (stroke (width 0)) (fill (type none))
        )
        (polyline
          (pts
            (xy 1.016 0)
            (xy 2.032 0.381)
            (xy 2.032 -0.381)
            (xy 1.016 0)
          )
          (stroke (width 0)) (fill (type outline))
        )
        (polyline
          (pts
            (xy 2.794 0.508)
            (xy 2.921 0.381)
            (xy 3.683 0.381)
            (xy 3.81 0.254)
          )
          (stroke (width 0)) (fill (type none))
        )
        (polyline
          (pts
            (xy 3.302 0.381)
            (xy 2.921 -0.254)
            (xy 3.683 -0.254)
            (xy 3.302 0.381)
          )
          (stroke (width 0)) (fill (type none))
        )
      )
      (symbol "Q_NMOS_GSD_1_1"
        (pin input line (at -5.08 0 0) (length 2.54)
          (name "G" (effects (font (size 1.27 1.27))))
          (number "1" (effects (font (size 1.27 1.27))))
        )
        (pin passive line (at 2.54 -5.08 90) (length 2.54)
          (name "S" (effects (font (size 1.27 1.27))))
          (number "2" (effects (font (size 1.27 1.27))))
        )
        (pin passive line (at 2.54 5.08 270) (length 2.54)
          (name "D" (effects (font (size 1.27 1.27))))
          (number "3" (effects (font (size 1.27 1.27))))
        )
      )
    )
    (symbol "Device:R" (pin_numbers hide) (pin_names (offset 0))
      (property "Reference" "R" (id 0) (at 2.032 0 90)
        (effects (font (size 1.27 1.27)))
      )
      (property "Value" "R" (id 1) (at 0 0 90)
        (effects (font (size 1.27 1.27)))
      )
      (property "Footprint" "" (id 2) (at -1.778 0 90)
        (effects (font (size 1.27 1.27)) hide)
      )
      (property "Datasheet" "~" (id 3) (at 0 0 0)
        (effects (font (size 1.27 1.27)) hide)
      )
      (property "ki_keywords" "R res resistor" (id 4) (at 0 0 0)
        (effects (font (size 1.27 1.27)) hide)
      )
      (property "ki_description" "Resistor" (id 5) (at 0 0 0)
        (effects (font (size 1.27 1.27)) hide)
      )
      (property "ki_fp_filters" "R_*" (id 6) (at 0 0 0)
        (effects (font (size 1.27 1.27)) hide)
      )
      (symbol "R_0_1"
        (rectangle (start -1.016 -2.54) (end 1.016 2.54)
          (stroke (width 0.254)) (fill (type none))
        )
      )
      (symbol "R_1_1"
        (pin passive line (at 0 3.81 270) (length 1.27)
          (name "~" (effects (font (size 1.27 1.27))))
          (number "1" (effects (font (size 1.27 1.27))))
        )
        (pin passive line (at 0 -3.81 90) (length 1.27)
          (name "~" (effects (font (size 1.27 1.27))))
          (number "2" (effects (font (size 1.27 1.27))))
        )
      )
    )
    (symbol "imx6rex:SST25VF016B-75-4I-QAF"
      (property "Reference" "U" (id 0) (at -10.16 5.08 0)
        (effects (font (size 1.524 1.524)) (justify left bottom))
      )
      (property "Value" "SST25VF016B-75-4I-QAF" (id 1) (at 2.54 5.08 0)
        (effects (font (size 1.524 1.524)) (justify left bottom))
      )
      (property "Footprint" "Package_SON:WSON-8-1EP_6x5mm_P1.27mm_EP3.4x4mm" (id 2) (at 0 0 0)
        (effects (font (size 1.524 1.524)) hide)
      )
      (property "Datasheet" "" (id 3) (at 0 0 0)
        (effects (font (size 1.524 1.524)) hide)
      )
      (symbol "SST25VF016B-75-4I-QAF_0_1"
        (rectangle (start -10.16 -7.62) (end 10.16 5.08)
          (stroke (width 0.254)) (fill (type background))
        )
        (pin passive line (at -17.78 -5.08 0) (length 7.62)
          (name "~CE" (effects (font (size 1.778 1.778))))
          (number "1" (effects (font (size 1.778 1.778))))
        )
        (pin passive line (at -17.78 -2.54 0) (length 7.62)
          (name "SO" (effects (font (size 1.778 1.778))))
          (number "2" (effects (font (size 1.778 1.778))))
        )
        (pin passive line (at 17.78 -2.54 180) (length 7.62)
          (name "~WP" (effects (font (size 1.778 1.778))))
          (number "3" (effects (font (size 1.778 1.778))))
        )
        (pin passive line (at 17.78 -5.08 180) (length 7.62)
          (name "VSS" (effects (font (size 1.778 1.778))))
          (number "4" (effects (font (size 1.778 1.778))))
        )
        (pin passive line (at -17.78 0 0) (length 7.62)
          (name "SI" (effects (font (size 1.778 1.778))))
          (number "5" (effects (font (size 1.778 1.778))))
        )
        (pin passive line (at -17.78 2.54 0) (length 7.62)
          (name "SCK" (effects (font (size 1.778 1.778))))
          (number "6" (effects (font (size 1.778 1.778))))
        )
        (pin passive line (at 17.78 0 180) (length 7.62)
          (name "~HOLD" (effects (font (size 1.778 1.778))))
          (number "7" (effects (font (size 1.778 1.778))))
        )
        (pin passive line (at 17.78 2.54 180) (length 7.62)
          (name "VDD" (effects (font (size 1.778 1.778))))
          (number "8" (effects (font (size 1.778 1.778))))
        )
        (pin passive line (at 0 -15.24 90) (length 7.62)
          (name "EP" (effects (font (size 1.778 1.778))))
          (number "9" (effects (font (size 1.778 1.778))))
        )
      )
    )
    (symbol "power:+3V3" (power) (pin_names (offset 0))
      (property "Reference" "#PWR" (id 0) (at 0 -3.81 0)
        (effects (font (size 1.27 1.27)) hide)
      )
      (property "Value" "+3V3" (id 1) (at 0 3.556 0)
        (effects (font (size 1.27 1.27)))
      )
      (property "Footprint" "" (id 2) (at 0 0 0)
        (effects (font (size 1.27 1.27)) hide)
      )
      (property "Datasheet" "" (id 3) (at 0 0 0)
        (effects (font (size 1.27 1.27)) hide)
      )
      (property "ki_keywords" "power-flag" (id 4) (at 0 0 0)
        (effects (font (size 1.27 1.27)) hide)
      )
      (property "ki_description" "Power symbol creates a global label with name \"+3V3\"" (id 5) (at 0 0 0)
        (effects (font (size 1.27 1.27)) hide)
      )
      (symbol "+3V3_0_1"
        (polyline
          (pts
            (xy -0.762 1.27)
            (xy 0 2.54)
          )
          (stroke (width 0)) (fill (type none))
        )
        (polyline
          (pts
            (xy 0 0)
            (xy 0 2.54)
          )
          (stroke (width 0)) (fill (type none))
        )
        (polyline
          (pts
            (xy 0 2.54)
            (xy 0.762 1.27)
          )
          (stroke (width 0)) (fill (type none))
        )
      )
      (symbol "+3V3_1_1"
        (pin power_in line (at 0 0 90) (length 0) hide
          (name "+3V3" (effects (font (size 1.27 1.27))))
          (number "1" (effects (font (size 1.27 1.27))))
        )
      )
    )
    (symbol "power:GND" (power) (pin_names (offset 0))
      (property "Reference" "#PWR" (id 0) (at 0 -6.35 0)
        (effects (font (size 1.27 1.27)) hide)
      )
      (property "Value" "GND" (id 1) (at 0 -3.81 0)
        (effects (font (size 1.27 1.27)))
      )
      (property "Footprint" "" (id 2) (at 0 0 0)
        (effects (font (size 1.27 1.27)) hide)
      )
      (property "Datasheet" "" (id 3) (at 0 0 0)
        (effects (font (size 1.27 1.27)) hide)
      )
      (property "ki_keywords" "power-flag" (id 4) (at 0 0 0)
        (effects (font (size 1.27 1.27)) hide)
      )
      (property "ki_description" "Power symbol creates a global label with name \"GND\" , ground" (id 5) (at 0 0 0)
        (effects (font (size 1.27 1.27)) hide)
      )
      (symbol "GND_0_1"
        (polyline
          (pts
            (xy 0 0)
            (xy 0 -1.27)
            (xy 1.27 -1.27)
            (xy 0 -2.54)
            (xy -1.27 -1.27)
            (xy 0 -1.27)
          )
          (stroke (width 0)) (fill (type none))
        )
      )
      (symbol "GND_1_1"
        (pin power_in line (at 0 0 270) (length 0) hide
          (name "GND" (effects (font (size 1.27 1.27))))
          (number "1" (effects (font (size 1.27 1.27))))
        )
      )
    )
  )

  (junction (at 302.26 283.21) (diameter 1.016) (color 0 0 0 0))
  (junction (at 340.36 140.97) (diameter 1.016) (color 0 0 0 0))
  (junction (at 340.36 143.51) (diameter 1.016) (color 0 0 0 0))
  (junction (at 345.44 140.97) (diameter 1.016) (color 0 0 0 0))

  (wire (pts (xy 190.5 283.21) (xy 195.58 283.21))
    (stroke (width 0) (type solid) (color 0 0 0 0))
  )
  (wire (pts (xy 203.2 246.38) (xy 203.2 250.19))
    (stroke (width 0) (type solid) (color 0 0 0 0))
  )
  (wire (pts (xy 203.2 257.81) (xy 203.2 262.89))
    (stroke (width 0) (type solid) (color 0 0 0 0))
  )
  (wire (pts (xy 203.2 270.51) (xy 203.2 278.13))
    (stroke (width 0) (type solid) (color 0 0 0 0))
  )
  (wire (pts (xy 203.2 288.29) (xy 203.2 290.83))
    (stroke (width 0) (type solid) (color 0 0 0 0))
  )
  (wire (pts (xy 241.3 140.97) (xy 284.48 140.97))
    (stroke (width 0) (type solid) (color 0 0 0 0))
  )
  (wire (pts (xy 241.3 143.51) (xy 284.48 143.51))
    (stroke (width 0) (type solid) (color 0 0 0 0))
  )
  (wire (pts (xy 241.3 146.05) (xy 284.48 146.05))
    (stroke (width 0) (type solid) (color 0 0 0 0))
  )
  (wire (pts (xy 241.3 148.59) (xy 284.48 148.59))
    (stroke (width 0) (type solid) (color 0 0 0 0))
  )
  (wire (pts (xy 297.18 283.21) (xy 302.26 283.21))
    (stroke (width 0) (type solid) (color 0 0 0 0))
  )
  (wire (pts (xy 302.26 161.29) (xy 302.26 158.75))
    (stroke (width 0) (type solid) (color 0 0 0 0))
  )
  (wire (pts (xy 302.26 246.38) (xy 302.26 260.35))
    (stroke (width 0) (type solid) (color 0 0 0 0))
  )
  (wire (pts (xy 302.26 267.97) (xy 302.26 283.21))
    (stroke (width 0) (type solid) (color 0 0 0 0))
  )
  (wire (pts (xy 302.26 283.21) (xy 309.88 283.21))
    (stroke (width 0) (type solid) (color 0 0 0 0))
  )
  (wire (pts (xy 317.5 246.38) (xy 317.5 250.19))
    (stroke (width 0) (type solid) (color 0 0 0 0))
  )
  (wire (pts (xy 317.5 257.81) (xy 317.5 264.16))
    (stroke (width 0) (type solid) (color 0 0 0 0))
  )
  (wire (pts (xy 317.5 271.78) (xy 317.5 278.13))
    (stroke (width 0) (type solid) (color 0 0 0 0))
  )
  (wire (pts (xy 317.5 288.29) (xy 317.5 290.83))
    (stroke (width 0) (type solid) (color 0 0 0 0))
  )
  (wire (pts (xy 320.04 143.51) (xy 325.12 143.51))
    (stroke (width 0) (type solid) (color 0 0 0 0))
  )
  (wire (pts (xy 320.04 146.05) (xy 325.12 146.05))
    (stroke (width 0) (type solid) (color 0 0 0 0))
  )
  (wire (pts (xy 320.04 148.59) (xy 321.31 148.59))
    (stroke (width 0) (type solid) (color 0 0 0 0))
  )
  (wire (pts (xy 321.31 148.59) (xy 321.31 149.86))
    (stroke (width 0) (type solid) (color 0 0 0 0))
  )
  (wire (pts (xy 332.74 143.51) (xy 340.36 143.51))
    (stroke (width 0) (type solid) (color 0 0 0 0))
  )
  (wire (pts (xy 332.74 146.05) (xy 340.36 146.05))
    (stroke (width 0) (type solid) (color 0 0 0 0))
  )
  (wire (pts (xy 340.36 140.97) (xy 320.04 140.97))
    (stroke (width 0) (type solid) (color 0 0 0 0))
  )
  (wire (pts (xy 340.36 140.97) (xy 340.36 143.51))
    (stroke (width 0) (type solid) (color 0 0 0 0))
  )
  (wire (pts (xy 340.36 143.51) (xy 340.36 146.05))
    (stroke (width 0) (type solid) (color 0 0 0 0))
  )
  (wire (pts (xy 345.44 139.7) (xy 345.44 140.97))
    (stroke (width 0) (type solid) (color 0 0 0 0))
  )
  (wire (pts (xy 345.44 140.97) (xy 340.36 140.97))
    (stroke (width 0) (type solid) (color 0 0 0 0))
  )
  (wire (pts (xy 345.44 148.59) (xy 345.44 149.86))
    (stroke (width 0) (type solid) (color 0 0 0 0))
  )

  (text "POWER LED" (at 203.2 237.49 0)
    (effects (font (size 5.4864 5.4864) (thickness 1.0973) bold) (justify left bottom))
  )
  (text "SPI FLASH, LED" (at 233.68 81.28 0)
    (effects (font (size 10.9728 10.9728) (thickness 2.1946) bold) (justify left bottom))
  )
  (text "SPI NOR FLASH" (at 281.94 105.41 0)
    (effects (font (size 5.4864 5.4864) (thickness 1.0973) bold) (justify left bottom))
  )
  (text "USER DEFINED LED" (at 312.42 237.49 0)
    (effects (font (size 5.4864 5.4864) (thickness 1.0973) bold) (justify left bottom))
  )

  (global_label "POK_3V3" (shape passive) (at 190.5 283.21 180)
    (effects (font (size 1.27 1.27)) (justify right))
  )
  (global_label "CSPI3_CLK" (shape input) (at 241.3 140.97 180)
    (effects (font (size 1.27 1.27)) (justify right))
  )
  (global_label "CSPI3_MOSI" (shape input) (at 241.3 143.51 180)
    (effects (font (size 1.27 1.27)) (justify right))
  )
  (global_label "CSPI3_MISO" (shape output) (at 241.3 146.05 180)
    (effects (font (size 1.27 1.27)) (justify right))
  )
  (global_label "CSPI3_CS2" (shape input) (at 241.3 148.59 180)
    (effects (font (size 1.27 1.27)) (justify right))
  )
  (global_label "USER_LED" (shape input) (at 297.18 283.21 180)
    (effects (font (size 1.27 1.27)) (justify right))
  )

  (symbol (lib_id "power:+3V3") (at 203.2 246.38 0) (unit 1)
    (in_bom yes) (on_board yes)
    (uuid "598411f8-8282-437c-b34a-43ac28ac2b41")
    (property "Reference" "#PWR0270" (id 0) (at 203.2 250.19 0)
      (effects (font (size 1.27 1.27)) hide)
    )
    (property "Value" "+3V3" (id 1) (at 204.47 241.3 0))
    (property "Footprint" "" (id 2) (at 203.2 246.38 0)
      (effects (font (size 1.27 1.27)) hide)
    )
    (property "Datasheet" "" (id 3) (at 203.2 246.38 0)
      (effects (font (size 1.27 1.27)) hide)
    )
  )

  (symbol (lib_id "power:+3V3") (at 302.26 246.38 0) (unit 1)
    (in_bom yes) (on_board yes)
    (uuid "83635315-7369-48ff-9b45-d31eef8a7041")
    (property "Reference" "#PWR0268" (id 0) (at 302.26 250.19 0)
      (effects (font (size 1.27 1.27)) hide)
    )
    (property "Value" "+3V3" (id 1) (at 303.53 241.3 0))
    (property "Footprint" "" (id 2) (at 302.26 246.38 0)
      (effects (font (size 1.27 1.27)) hide)
    )
    (property "Datasheet" "" (id 3) (at 302.26 246.38 0)
      (effects (font (size 1.27 1.27)) hide)
    )
  )

  (symbol (lib_id "power:+3V3") (at 317.5 246.38 0) (unit 1)
    (in_bom yes) (on_board yes)
    (uuid "91763161-10fb-48c5-ba52-745019a71991")
    (property "Reference" "#PWR0267" (id 0) (at 317.5 250.19 0)
      (effects (font (size 1.27 1.27)) hide)
    )
    (property "Value" "+3V3" (id 1) (at 318.77 241.3 0))
    (property "Footprint" "" (id 2) (at 317.5 246.38 0)
      (effects (font (size 1.27 1.27)) hide)
    )
    (property "Datasheet" "" (id 3) (at 317.5 246.38 0)
      (effects (font (size 1.27 1.27)) hide)
    )
  )

  (symbol (lib_id "power:+3V3") (at 345.44 139.7 0) (unit 1)
    (in_bom yes) (on_board yes)
    (uuid "c57603e0-0414-4b36-9132-c136ab4a97db")
    (property "Reference" "#PWR0264" (id 0) (at 345.44 143.51 0)
      (effects (font (size 1.27 1.27)) hide)
    )
    (property "Value" "+3V3" (id 1) (at 346.71 134.62 0))
    (property "Footprint" "" (id 2) (at 345.44 139.7 0)
      (effects (font (size 1.27 1.27)) hide)
    )
    (property "Datasheet" "" (id 3) (at 345.44 139.7 0)
      (effects (font (size 1.27 1.27)) hide)
    )
  )

  (symbol (lib_id "power:GND") (at 203.2 290.83 0) (unit 1)
    (in_bom yes) (on_board yes)
    (uuid "4a699f28-128d-4e0c-a325-60785f1ef861")
    (property "Reference" "#PWR0269" (id 0) (at 203.2 297.18 0)
      (effects (font (size 1.27 1.27)) hide)
    )
    (property "Value" "GND" (id 1) (at 203.2 294.64 0))
    (property "Footprint" "" (id 2) (at 203.2 290.83 0)
      (effects (font (size 1.27 1.27)) hide)
    )
    (property "Datasheet" "" (id 3) (at 203.2 290.83 0)
      (effects (font (size 1.27 1.27)) hide)
    )
  )

  (symbol (lib_id "power:GND") (at 302.26 161.29 0) (unit 1)
    (in_bom yes) (on_board yes)
    (uuid "449020cb-304c-4d0a-ae9f-a94ae4668ebf")
    (property "Reference" "#PWR0263" (id 0) (at 302.26 167.64 0)
      (effects (font (size 1.27 1.27)) hide)
    )
    (property "Value" "GND" (id 1) (at 302.26 165.1 0))
    (property "Footprint" "" (id 2) (at 302.26 161.29 0)
      (effects (font (size 1.27 1.27)) hide)
    )
    (property "Datasheet" "" (id 3) (at 302.26 161.29 0)
      (effects (font (size 1.27 1.27)) hide)
    )
  )

  (symbol (lib_id "power:GND") (at 317.5 290.83 0) (unit 1)
    (in_bom yes) (on_board yes)
    (uuid "38277eb4-d7f4-4d0f-a9a4-8602f2e157e3")
    (property "Reference" "#PWR0266" (id 0) (at 317.5 297.18 0)
      (effects (font (size 1.27 1.27)) hide)
    )
    (property "Value" "GND" (id 1) (at 317.5 294.64 0))
    (property "Footprint" "" (id 2) (at 317.5 290.83 0)
      (effects (font (size 1.27 1.27)) hide)
    )
    (property "Datasheet" "" (id 3) (at 317.5 290.83 0)
      (effects (font (size 1.27 1.27)) hide)
    )
  )

  (symbol (lib_id "power:GND") (at 321.31 149.86 0) (unit 1)
    (in_bom yes) (on_board yes)
    (uuid "8a15b3c1-bbdf-45c9-b451-26edc54255f4")
    (property "Reference" "#PWR0262" (id 0) (at 321.31 156.21 0)
      (effects (font (size 1.27 1.27)) hide)
    )
    (property "Value" "GND" (id 1) (at 321.31 153.67 0))
    (property "Footprint" "" (id 2) (at 321.31 149.86 0)
      (effects (font (size 1.27 1.27)) hide)
    )
    (property "Datasheet" "" (id 3) (at 321.31 149.86 0)
      (effects (font (size 1.27 1.27)) hide)
    )
  )

  (symbol (lib_id "power:GND") (at 345.44 149.86 0) (unit 1)
    (in_bom yes) (on_board yes)
    (uuid "c4398192-bd90-4bea-a2a1-e1714180257e")
    (property "Reference" "#PWR0265" (id 0) (at 345.44 156.21 0)
      (effects (font (size 1.27 1.27)) hide)
    )
    (property "Value" "GND" (id 1) (at 345.44 153.67 0))
    (property "Footprint" "" (id 2) (at 345.44 149.86 0)
      (effects (font (size 1.27 1.27)) hide)
    )
    (property "Datasheet" "" (id 3) (at 345.44 149.86 0)
      (effects (font (size 1.27 1.27)) hide)
    )
  )

  (symbol (lib_id "Device:R") (at 203.2 254 180) (unit 1)
    (in_bom yes) (on_board yes)
    (uuid "00000000-0000-0000-0000-00005e7d9c6a")
    (property "Reference" "R113" (id 0) (at 204.47 251.46 0)
      (effects (font (size 1.524 1.524)) (justify right top))
    )
    (property "Value" "220R" (id 1) (at 204.47 254 0)
      (effects (font (size 1.524 1.524)) (justify right top))
    )
    (property "Footprint" "rex:0402" (id 2) (at 205.486 252.984 0)
      (effects (font (size 1.524 1.524)) hide)
    )
    (property "Datasheet" "" (id 3) (at 205.486 252.984 0)
      (effects (font (size 1.524 1.524)) hide)
    )
  )

  (symbol (lib_id "Device:R") (at 302.26 264.16 180) (unit 1)
    (in_bom yes) (on_board yes)
    (uuid "00000000-0000-0000-0000-00005e7d9c67")
    (property "Reference" "R115" (id 0) (at 303.53 260.35 0)
      (effects (font (size 1.524 1.524)) (justify right top))
    )
    (property "Value" "10k" (id 1) (at 303.53 262.89 0)
      (effects (font (size 1.524 1.524)) (justify right top))
    )
    (property "Footprint" "rex:0402" (id 2) (at 304.546 263.144 0)
      (effects (font (size 1.524 1.524)) hide)
    )
    (property "Datasheet" "" (id 3) (at 304.546 263.144 0)
      (effects (font (size 1.524 1.524)) hide)
    )
  )

  (symbol (lib_id "Device:R") (at 317.5 254 180) (unit 1)
    (in_bom yes) (on_board yes)
    (uuid "00000000-0000-0000-0000-00005e7d9c68")
    (property "Reference" "R114" (id 0) (at 318.77 251.46 0)
      (effects (font (size 1.524 1.524)) (justify right top))
    )
    (property "Value" "220R" (id 1) (at 318.77 254 0)
      (effects (font (size 1.524 1.524)) (justify right top))
    )
    (property "Footprint" "rex:0402" (id 2) (at 319.786 252.984 0)
      (effects (font (size 1.524 1.524)) hide)
    )
    (property "Datasheet" "" (id 3) (at 319.786 252.984 0)
      (effects (font (size 1.524 1.524)) hide)
    )
    (property "CrossRef" "10" (id 4) (at 599.44 52.451 90)
      (effects (font (size 1.524 1.524)) hide)
    )
  )

  (symbol (lib_id "Device:R") (at 328.93 143.51 270) (unit 1)
    (in_bom yes) (on_board yes)
    (uuid "00000000-0000-0000-0000-00005e7d9c6c")
    (property "Reference" "R109" (id 0) (at 325.755 141.605 90)
      (effects (font (size 1.524 1.524)) (justify right top))
    )
    (property "Value" "10k" (id 1) (at 336.55 141.605 90)
      (effects (font (size 1.524 1.524)) (justify right top))
    )
    (property "Footprint" "rex:0402" (id 2) (at 328.93 138.43 0)
      (effects (font (size 1.524 1.524)) hide)
    )
    (property "Datasheet" "" (id 3) (at 328.93 138.43 0)
      (effects (font (size 1.524 1.524)) hide)
    )
  )

  (symbol (lib_id "Device:R") (at 328.93 146.05 90) (unit 1)
    (in_bom yes) (on_board yes)
    (uuid "00000000-0000-0000-0000-00005e7d9c6d")
    (property "Reference" "R110" (id 0) (at 325.755 144.145 90)
      (effects (font (size 1.524 1.524)) (justify left bottom))
    )
    (property "Value" "10k" (id 1) (at 336.55 144.145 90)
      (effects (font (size 1.524 1.524)) (justify left bottom))
    )
    (property "Footprint" "rex:0402" (id 2) (at 328.93 143.51 0)
      (effects (font (size 1.524 1.524)) hide)
    )
    (property "Datasheet" "" (id 3) (at 328.93 143.51 0)
      (effects (font (size 1.524 1.524)) hide)
    )
  )

  (symbol (lib_id "Device:LED") (at 203.2 266.7 90) (unit 1)
    (in_bom yes) (on_board yes)
    (uuid "00000000-0000-0000-0000-00005e7d9c69")
    (property "Reference" "D2" (id 0) (at 205.74 265.43 90)
      (effects (font (size 1.524 1.524)) (justify right top))
    )
    (property "Value" "Green" (id 1) (at 205.74 267.97 90)
      (effects (font (size 1.524 1.524)) (justify right top))
    )
    (property "Footprint" "LED_SMD:LED_0603_1608Metric" (id 2) (at 201.422 261.62 0)
      (effects (font (size 1.524 1.524)) hide)
    )
    (property "Datasheet" "" (id 3) (at 201.422 261.62 0)
      (effects (font (size 1.524 1.524)) hide)
    )
    (property "CrossRef" "10, 13, 15" (id 4) (at 414.909 436.88 90)
      (effects (font (size 1.524 1.524)) hide)
    )
  )

  (symbol (lib_name "Device:LED_1") (lib_id "Device:LED") (at 317.5 267.97 90) (unit 1)
    (in_bom yes) (on_board yes)
    (uuid "00000000-0000-0000-0000-00005e7d9c70")
    (property "Reference" "D3" (id 0) (at 322.58 266.7 90)
      (effects (font (size 1.524 1.524)) (justify left bottom))
    )
    (property "Value" "Orange" (id 1) (at 327.66 269.24 90)
      (effects (font (size 1.524 1.524)) (justify left bottom))
    )
    (property "Footprint" "LED_SMD:LED_0603_1608Metric" (id 2) (at 314.706 268.224 0)
      (effects (font (size 1.524 1.524)) hide)
    )
    (property "Datasheet" "" (id 3) (at 314.706 268.224 0)
      (effects (font (size 1.524 1.524)) hide)
    )
  )

  (symbol (lib_id "Device:C") (at 345.44 144.78 0) (unit 1)
    (in_bom yes) (on_board yes)
    (uuid "00000000-0000-0000-0000-00005e7d9c6b")
    (property "Reference" "C203" (id 0) (at 347.98 147.066 0)
      (effects (font (size 1.524 1.524)) (justify left bottom))
    )
    (property "Value" "100n" (id 1) (at 347.98 149.606 0)
      (effects (font (size 1.524 1.524)) (justify left bottom))
    )
    (property "Footprint" "rex:0402" (id 2) (at 347.98 149.606 0)
      (effects (font (size 1.524 1.524)) hide)
    )
    (property "Datasheet" "" (id 3) (at 347.98 149.606 0)
      (effects (font (size 1.524 1.524)) hide)
    )
  )

  (symbol (lib_id "Device:Q_NMOS_GSD") (at 200.66 283.21 0) (unit 1)
    (in_bom yes) (on_board yes)
    (uuid "00000000-0000-0000-0000-00005e7d9c6f")
    (property "Reference" "Q1" (id 0) (at 205.74 281.94 0)
      (effects (font (size 1.524 1.524)) (justify left bottom))
    )
    (property "Value" "2N7002BKW,115" (id 1) (at 205.74 285.75 0)
      (effects (font (size 1.524 1.524)) (justify left bottom))
    )
    (property "Footprint" "rex:SOT323" (id 2) (at 203.2 285.496 0)
      (effects (font (size 1.524 1.524)) hide)
    )
    (property "Datasheet" "" (id 3) (at 203.2 285.496 0)
      (effects (font (size 1.524 1.524)) hide)
    )
  )

  (symbol (lib_id "Device:Q_NMOS_GSD") (at 314.96 283.21 0) (unit 1)
    (in_bom yes) (on_board yes)
    (uuid "00000000-0000-0000-0000-00005e7d9c6e")
    (property "Reference" "Q2" (id 0) (at 317.5 282.956 0)
      (effects (font (size 1.524 1.524)) (justify left bottom))
    )
    (property "Value" "2N7002BKW,115" (id 1) (at 317.5 285.496 0)
      (effects (font (size 1.524 1.524)) (justify left bottom))
    )
    (property "Footprint" "rex:SOT323" (id 2) (at 317.5 285.496 0)
      (effects (font (size 1.524 1.524)) hide)
    )
    (property "Datasheet" "" (id 3) (at 317.5 285.496 0)
      (effects (font (size 1.524 1.524)) hide)
    )
  )

  (symbol (lib_id "imx6rex:SST25VF016B-75-4I-QAF") (at 302.26 143.51 0) (unit 1)
    (in_bom yes) (on_board yes)
    (uuid "6f7f529b-c899-43c7-8224-416d958235c1")
    (property "Reference" "U10" (id 0) (at 302.26 132.08 0)
      (effects (font (size 1.524 1.524)))
    )
    (property "Value" "SST25VF016B-75-4I-QAF" (id 1) (at 302.26 135.89 0)
      (effects (font (size 1.524 1.524)))
    )
    (property "Footprint" "Package_SON:WSON-8-1EP_6x5mm_P1.27mm_EP3.4x4mm" (id 2) (at 302.26 143.51 0)
      (effects (font (size 1.524 1.524)) hide)
    )
    (property "Datasheet" "" (id 3) (at 302.26 143.51 0)
      (effects (font (size 1.524 1.524)) hide)
    )
  )

  (symbol_instances
    (path "/38277eb4-d7f4-4d0f-a9a4-8602f2e157e3" (reference "#PWR?") (unit 1))
    (path "/449020cb-304c-4d0a-ae9f-a94ae4668ebf" (reference "#PWR?") (unit 1))
    (path "/4a699f28-128d-4e0c-a325-60785f1ef861" (reference "#PWR?") (unit 1))
    (path "/598411f8-8282-437c-b34a-43ac28ac2b41" (reference "#PWR?") (unit 1))
    (path "/83635315-7369-48ff-9b45-d31eef8a7041" (reference "#PWR?") (unit 1))
    (path "/8a15b3c1-bbdf-45c9-b451-26edc54255f4" (reference "#PWR?") (unit 1))
    (path "/91763161-10fb-48c5-ba52-745019a71991" (reference "#PWR?") (unit 1))
    (path "/c4398192-bd90-4bea-a2a1-e1714180257e" (reference "#PWR?") (unit 1))
    (path "/c57603e0-0414-4b36-9132-c136ab4a97db" (reference "#PWR?") (unit 1))
    (path "/00000000-0000-0000-0000-00005e7d9c6b" (reference "C203") (unit 1))
    (path "/00000000-0000-0000-0000-00005e7d9c69" (reference "D2") (unit 1))
    (path "/00000000-0000-0000-0000-00005e7d9c70" (reference "D3") (unit 1))
    (path "/00000000-0000-0000-0000-00005e7d9c6f" (reference "Q1") (unit 1))
    (path "/00000000-0000-0000-0000-00005e7d9c6e" (reference "Q2") (unit 1))
    (path "/00000000-0000-0000-0000-00005e7d9c6c" (reference "R109") (unit 1))
    (path "/00000000-0000-0000-0000-00005e7d9c6d" (reference "R110") (unit 1))
    (path "/00000000-0000-0000-0000-00005e7d9c6a" (reference "R113") (unit 1))
    (path "/00000000-0000-0000-0000-00005e7d9c68" (reference "R114") (unit 1))
    (path "/00000000-0000-0000-0000-00005e7d9c67" (reference "R115") (unit 1))
    (path "/6f7f529b-c899-43c7-8224-416d958235c1" (reference "U?") (unit 1))
  )
)
