(module "1206" (layer F.Cu) (tedit 5F564C5E)
  (descr "1206")
  (tags "1206")
  (attr smd)
  (fp_text reference "REF**" (at 0 -1.82) (layer F.SilkS)
    (effects (font (size 1 1) (thickness 0.15)))
    (tstamp 78e7650c-7927-4b17-8596-bc5336568645)
  )
  (fp_text value "1206" (at 0 1.82) (layer F.Fab)
    (effects (font (size 1 1) (thickness 0.15)))
    (tstamp 27489932-d46e-4adc-8501-150942c1e9e2)
  )
  (fp_text user "${REFERENCE}" (at 0 0) (layer F.Fab)
    (effects (font (size 0.8 0.8) (thickness 0.12)))
    (tstamp 25ac3893-e180-4431-a33b-5f10a1dfb101)
  )
  (fp_line (start -0.602064 -0.91) (end 0.602064 -0.91) (layer F.SilkS) (width 0.12) (tstamp 7cd74be6-908c-44e7-ac0c-3330d9cb8424))
  (fp_line (start -0.602064 0.91) (end 0.602064 0.91) (layer F.SilkS) (width 0.12) (tstamp bef598d1-1679-4cc3-ad21-747197b9e8ae))
  (fp_line (start 2.1 0.9) (end 2.1 -0.9) (layer F.CrtYd) (width 0.05) (tstamp 3685370d-9494-4f54-bbc5-53af88063784))
  (fp_line (start -2.1 0.9) (end 2.1 0.9) (layer F.CrtYd) (width 0.05) (tstamp 61ba0fae-19a6-479a-a18d-f22f525a58fb))
  (fp_line (start 2.1 -0.9) (end -2.1 -0.9) (layer F.CrtYd) (width 0.05) (tstamp aeab13ea-bbab-439c-9b2a-aaee6e06248f))
  (fp_line (start -2.1 -0.9) (end -2.1 0.9) (layer F.CrtYd) (width 0.05) (tstamp aec1570d-9909-41fe-8b85-ef951f30c9ed))
  (fp_line (start -1.6 0.8) (end -1.6 -0.8) (layer F.Fab) (width 0.1) (tstamp 0ba5afbd-2463-4e48-b5f1-ffc454ee34ab))
  (fp_line (start 1.6 0.8) (end -1.6 0.8) (layer F.Fab) (width 0.1) (tstamp 5ec7aa35-ac32-4093-a0c8-ab3e80698382))
  (fp_line (start 1.6 -0.8) (end 1.6 0.8) (layer F.Fab) (width 0.1) (tstamp 93c5801b-3b5c-4c15-87fd-5a3e74c4b134))
  (fp_line (start -1.6 -0.8) (end 1.6 -0.8) (layer F.Fab) (width 0.1) (tstamp a288fec3-2d4a-4c7b-82a2-748b2dfaad78))
  (pad "1" smd rect (at -1.55 0) (size 0.9 1.6) (layers "F.Cu" "F.Paste" "F.Mask") (tstamp 9696e578-6c70-4482-9cf0-ad01a1f0fbf7))
  (pad "2" smd rect (at 1.55 0) (size 0.9 1.6) (layers "F.Cu" "F.Paste" "F.Mask") (tstamp d11b43da-2c0c-4421-8e4b-42bdceffec98))
  (model "${KISYS3DMOD}/Capacitor_SMD.3dshapes/C_1206_3216Metric.wrl"
    (offset (xyz 0 0 0))
    (scale (xyz 1 1 1))
    (rotate (xyz 0 0 0))
  )
)
