(module "CRYSTAL" (layer F.Cu) (tedit 5F58ABB9)
  (attr smd)
  (fp_text reference "Y" (at 0 0) (layer B.SilkS) hide
    (effects (font (size 1.524 1.524) (thickness 0.05)) (justify mirror))
    (tstamp cc398a42-7248-4754-9844-f2a843180ad4)
  )
  (fp_text value "CRYSTAL" (at 0 0) (layer B.SilkS) hide
    (effects (font (size 1.524 1.524) (thickness 0.05)) (justify mirror))
    (tstamp 79549f96-bb6e-4f0b-9f1e-d4fb28aef258)
  )
  (fp_line (start -3.4 1.8) (end 3.4 1.8) (layer F.SilkS) (width 0.2) (tstamp 42a5a4dc-9230-4f75-b5da-042e93a6b6c5))
  (fp_line (start 3.4 -1.8) (end 3.4 1.8) (layer F.SilkS) (width 0.2) (tstamp 4f94f269-5e4e-4b86-85ab-9928afdc231e))
  (fp_line (start -3.4 -1.8) (end -3.4 1.8) (layer F.SilkS) (width 0.2) (tstamp 83b55015-7283-4665-9d60-9fc691905247))
  (fp_line (start -3.4 -1.8) (end 3.4 -1.8) (layer F.SilkS) (width 0.2) (tstamp c31f53d8-88e3-4049-8309-03a6a484a4bb))
  (pad "1" smd rect (at -2.15 0) (size 1.9 2.6) (layers "F.Cu" "F.Paste" "F.Mask") (tstamp 14ff115b-391e-4e0f-9019-25f3f6681ad0))
  (pad "2" smd rect (at 2.15 0) (size 1.9 2.6) (layers "F.Cu" "F.Paste" "F.Mask") (tstamp 5b2c0ce7-c94e-402a-aa32-cfeab49b8005))
  (model "./wrlshp/1C4A92BB-8EEF.wrl"
    (offset (xyz 0 0 0))
    (scale (xyz 1 1 1))
    (rotate (xyz 0 0 180))
  )
)
