(module "inductor2" (layer F.Cu) (tedit 5F50D0E3)
  (fp_text reference "REF**" (at 0 -3 unlocked) (layer F.SilkS)
    (effects (font (size 1 1) (thickness 0.15)))
  )
  (fp_text value "inductor2" (at 0 1 unlocked) (layer F.Fab)
    (effects (font (size 1 1) (thickness 0.15)))
  )
  (fp_text user "L3" (at 0 0) (layer F.SilkS) hide
    (effects (font (size 1.524 1.524) (thickness 0.05)))
  )
  (fp_line (start -0.35 -2.1) (end 0.35 -2.1) (layer F.SilkS) (width 0.2))
  (fp_line (start -0.35 2.1) (end 0.35 2.1) (layer F.SilkS) (width 0.2))
  (pad "2" smd rect (at 1.45 0) (size 1.6 3.9) (layers "F.Cu" "F.Paste" "F.Mask") (tstamp 8c17cb62-1603-42c9-874e-3bf778eeb720))
  (pad "1" smd rect (at -1.45 0) (size 1.6 3.9) (layers "F.Cu" "F.Paste" "F.Mask") (tstamp 6dd2de08-7d96-4e05-84d5-5c3ad691318e))
)
