(module "rex" (layer F.Cu) (tedit 5F54901D)
  (fp_text reference "REF**" (at 1 -2 unlocked) (layer F.SilkS)
    (effects (font (size 1 1) (thickness 0.15)))
    (tstamp 1f7bc7f9-e5cd-4f76-9c7d-edac9ff9b104)
  )
  (fp_text value "rex" (at 0 1 unlocked) (layer F.Fab)
    (effects (font (size 1 1) (thickness 0.15)))
    (tstamp 80f48059-6835-4392-80aa-60a8c2a9d75d)
  )
  (fp_text user "Y2" (at 0 0) (layer F.SilkS) hide
    (effects (font (size 1.524 1.524) (thickness 0.05)))
    (tstamp 3c15a5a7-0933-4b2e-8ff1-a469820e02a6)
  )
  (fp_text user "${REFERENCE}" (at 0 2.5 unlocked) (layer F.Fab)
    (effects (font (size 1 1) (thickness 0.15)))
    (tstamp 61474f4d-b22f-49ba-919f-af50e7247ee7)
  )
  (fp_line (start -0.25 0.75) (end 0.25 0.75) (layer F.SilkS) (width 0.12) (tstamp 3aee5696-504b-418e-800e-077c953b5c38))
  (fp_line (start -0.25 -0.75) (end 0.25 -0.75) (layer F.SilkS) (width 0.12) (tstamp 5d5f776d-c4ad-403e-8dd7-abf4cbaf3c88))
  (pad "1" smd rect (at 0.725 0 180) (size 0.75 1.4) (layers "F.Cu" "F.Paste" "F.Mask") (tstamp 838c5a79-05c2-42a5-a4b5-4d2c668e7354))
  (pad "2" smd rect (at -0.725 0 180) (size 0.75 1.4) (layers "F.Cu" "F.Paste" "F.Mask") (tstamp 41fbf917-d997-44eb-9819-b673eb85ca96))
)
